…
    ℹ Use `spec()` to retrieve the full column specification for this data.
    ℹ Specify the column types or set `show_col_types = FALSE` to quiet this message.

``` r
dns1 <- head((dns2), n = nrow(dns2) - 2)
dns1
```

    # A tibble: 427,933 × 23
                X1 X2    X3       X4 X5       X6 X7       X8 X9    X10   X11   X12  
             <dbl> <chr> <chr> <dbl> <chr> <dbl> <chr> <dbl> <chr> <chr> <chr> <chr>
     1 1331901006. CWGt… 192.… 45658 192.…   137 udp   33008 "*\\… 1     C_IN… 33   
     2 1331901015. C36a… 192.…   137 192.…   137 udp   57402 "HPE… 1     C_IN… 32   
     3 1331901016. C36a… 192.…   137 192.…   137 udp   57402 "HPE… 1     C_IN… 32   
     4 1331901017. C36a… 192.…   137 192.…   137 udp   57402 "HPE… 1     C_IN… 32   
     5 1331901006. C36a… 192.…   137 192.…   137 udp   57398 "WPA… 1     C_IN… 32   
     6 1331901007. C36a… 192.…   137 192.…   137 udp   57398 "WPA… 1     C_IN… 32   
     7 1331901007. C36a… 192.…   137 192.…   137 udp   57398 "WPA… 1     C_IN… 32   
     8 1331901006. ClEZ… 192.…   137 192.…   137 udp   62187 "EWR… 1     C_IN… 32   
     9 1331901007. ClEZ… 192.…   137 192.…   137 udp   62187 "EWR… 1     C_IN… 32   
    10 1331901008. ClEZ… 192.…   137 192.…   137 udp   62187 "EWR… 1     C_IN… 32   
    # ℹ 427,923 more rows
    # ℹ 11 more variables: X13 <chr>, X14 <chr>, X15 <chr>, X16 <lgl>, X17 <lgl>,
    #   X18 <lgl>, X19 <lgl>, X20 <dbl>, X21 <chr>, X22 <chr>, X23 <lgl>
…
