…
#### 4. Сколько уникальных рас персонажей (species) представлено в данных?

``` r
starwars %>% select (species) %>% 
  unique ()
```

    # A tibble: 38 × 1
       species       
       <chr>         
     1 Human         
     2 Droid         
     3 Wookiee       
     4 Rodian        
     5 Hutt          
     6 <NA>          
     7 Yoda's species
     8 Trandoshan    
     9 Mon Calamari  
    10 Ewok          
    # ℹ 28 more rows
…
    # A tibble: 1 × 2
      name        height
      <chr>        <int>
    1 Yarael Poof    264

#### 7. Подсчитать ИМТ (индекс массы тела) для всех персонажей. ИМТ подсчитать по формуле I = m/h^2 , где m – масса (weight), а h – рост (height).

``` r
starwars %>% mutate (bmi = mass / ((height / 100) ^ 2)) %>% select (name, bmi)
```

    # A tibble: 87 × 2
       name                 bmi
       <chr>              <dbl>
     1 Luke Skywalker      26.0
     2 C-3PO               26.9
     3 R2-D2               34.7
     4 Darth Vader         33.3
     5 Leia Organa         21.8
     6 Owen Lars           37.9
     7 Beru Whitesun Lars  27.5
     8 R5-D4               34.0
     9 Biggs Darklighter   25.1
    10 Obi-Wan Kenobi      23.2
    # ℹ 77 more rows
…
#### 9. Найти средний возраст персонажей каждой расы вселенной Звёздных войн

``` r
starwars %>% group_by (species) %>% summarise (average_age = mean (birth_year, na.rm = TRUE))
```

    # A tibble: 38 × 2
       species   average_age
       <chr>           <dbl>
     1 Aleena          NaN  
     2 Besalisk        NaN  
     3 Cerean           92  
     4 Chagrian        NaN  
     5 Clawdite        NaN  
     6 Droid            53.3
     7 Dug             NaN  
     8 Ewok              8  
     9 Geonosian       NaN  
    10 Gungan           52  
    # ℹ 28 more rows
…
    # A tibble: 1 × 2
      eye_color     n
      <chr>     <int>
    1 brown        21

#### 11. Подсчитать среднюю длинц имени в каждой расе вселенной Звёздных войн

``` r
starwars %>% group_by (species) %>% summarise (name_lenght = mean (nchar (name)))
```

    # A tibble: 38 × 2
       species   name_lenght
       <chr>           <dbl>
     1 Aleena          12   
     2 Besalisk        15   
     3 Cerean          12   
     4 Chagrian        10   
     5 Clawdite        10   
     6 Droid            4.83
     7 Dug              7   
     8 Ewok            21   
     9 Geonosian       17   
    10 Gungan          11.7 
    # ℹ 28 more rows
…
